﻿## Interface: 50400
## Author: Apollyon
## Version: 1.11
## Title: |cff00fcceE|r|cffe5e3e3lvUI|r |cff00fcceE|r|cffe5e3e3nhanced|r |cff00fcceF|r|cffe5e3e3riends|r |cff00fcceL|r|cffe5e3e3ist|r
## SavedVariables: EnhancedFriendsListDB
## RequiredDeps: ElvUI

Locales\Load_Locales.xml
Media\Load_Media.xml
Settings\Load_Settings.xml
ElvUI_EnhancedFriendsList.lua
Config\Load_Config.xml