## Interface: 50400
## Author: Bunny, Azilroka, Sortokk, Apollyon
## Version: 1.2
## Title: |cff00fcceE|r|cffe5e3e3lvUI|r |cff00fcceA|r|cffe5e3e3ddOn|r |cff00fcceS|r|cffe5e3e3kins|r
## RequiredDeps: ElvUI

Locales\Load_Locales.xml
Media\Load_Media.xml
Settings\Load_Settings.xml
ElvUI_AddOnSkins.lua
Modules\Load_Modules.xml
Skins\Load_Skins.xml
Config\Load_Config.xml